{
  "images" : [
    {
      "idiom" : "universal",
      "filename" : "514406736-612x612.png",
      "scale" : "1x"
    },
    {
      "idiom" : "universal",
      "filename" : "514406736-612x612@2x.png",
      "scale" : "2x"
    },
    {
      "idiom" : "universal",
      "filename" : "514406736-612x612@3x.png",
      "scale" : "3x"
    }
  ],
  "info" : {
    "version" : 1,
    "author" : "xcode"
  }
}